EDS 213 Assignment 2: Data Cleaning
…
     Land_cover = case_when(
      ((0 == sum(Snow_cover, Water_cover, Land_cover, na.rm = TRUE))) ~ NA,
      .default = Land_cover # else keep original value
    )
    
    # leaving Total_cover in tact as a flag for "bad"/erroneous data.
    
  ) %>% 
  # moving new total_clean column after Total_cover column for easier direct visual comparison
  relocate("total_clean", .after = "Total_cover")

# view output
total_snowsurvey_clean

# A tibble: 42,830 × 12
# Rowwise: 
   Site   Year Date      Plot  Location Snow_cover Water_cover Land_cover
   <chr> <dbl> <chr>     <chr> <chr>         <dbl>       <dbl>      <dbl>
 1 barr   2011 29-May-11 brw1  b10              90           0         10
 2 barr   2011 29-May-11 brw1  b12             100           0          0
 3 barr   2011 29-May-11 brw1  b2               90           0         10
 4 barr   2011 29-May-11 brw1  b4              100           0          0
 5 barr   2011 29-May-11 brw1  b6               95           0          5
 6 barr   2011 29-May-11 brw1  b8               95           0          5
 7 barr   2011 29-May-11 brw1  d10              95           0          5
 8 barr   2011 29-May-11 brw1  d12              90           0         10
 9 barr   2011 29-May-11 brw1  d2               95           0          5
10 barr   2011 29-May-11 brw1  d4               95           0          5
# ℹ 42,820 more rows
# ℹ 4 more variables: Total_cover <chr>, total_clean <chr>, Observer <chr>,
#   Notes <chr>

total_snowsurvey_clean %>% 
  filter(is.na(total_clean)) %>%
  select(-Notes, -Observer, -Location)

# A tibble: 5,407 × 9
# Rowwise: 
   Site   Year Date      Plot  Snow_cover Water_cover Land_cover Total_cover
   <chr> <dbl> <chr>     <chr>      <dbl>       <dbl>      <dbl> <chr>      
 1 barr   2011 29-May-11 brw6          NA          NA         NA <NA>       
 2 barr   2011 29-May-11 brw6          NA          NA         NA <NA>       
 3 barr   2011 29-May-11 brw6          NA          NA         NA <NA>       
 4 barr   2011 29-May-11 brw6          NA          NA         NA <NA>       
 5 barr   2011 29-May-11 brw6          NA          NA         NA <NA>       
 6 barr   2011 29-May-11 brw6          NA          NA         NA <NA>       
 7 barr   2011 29-May-11 brw6          NA          NA         NA <NA>       
 8 barr   2011 29-May-11 brw6          NA          NA         NA <NA>       
 9 barr   2011 29-May-11 brw6          NA          NA         NA <NA>       
10 barr   2011 29-May-11 brw6          NA          NA         NA <NA>       
# ℹ 5,397 more rows
# ℹ 1 more variable: total_clean <chr>
…
